
//        "Consumer grade": 0,
//        "Industrial grade": 0,
//        "Mil-spec": 70,
//        "Restricted": 50,
//        "Classified": 48,
//        "Covert": 40,
//        "Exceedingly Rare": 10