------------------------------
2016-01-05 03:19:11
=== Authentication attempt ===
Signature: KUM9E964Q2TZ5OUDDH6293TILA0E0O6N
------------------------------
------------------------------
2016-01-05 03:19:11
=== Authentication ===
Signature: KUM9E964Q2TZ5OUDDH6293TILA0E0O6N
Failed!
------------------------------
------------------------------
2016-01-05 03:19:28
=== Authentication attempt ===
Signature: IAX4W37PEZ8NDRETKY4GZUI6Z35ATBUB
------------------------------
------------------------------
2016-01-05 03:19:28
=== Authentication ===
Signature: IAX4W37PEZ8NDRETKY4GZUI6Z35ATBUB
Failed!
------------------------------
------------------------------
2016-01-05 03:19:35
=== Authentication attempt ===
Signature: 4WYUDGFQWEKLK52EGF2Z624T8AQS6D20
------------------------------
------------------------------
2016-01-05 03:19:36
=== Authentication ===
Signature: 4WYUDGFQWEKLK52EGF2Z624T8AQS6D20
Passed!
------------------------------
------------------------------
2016-01-05 03:22:44
=== Authentication attempt ===
Signature: KFDT2Z5GZ4Z0K5KEPZ9TU967BARMQDA7
------------------------------
------------------------------
2016-01-05 03:22:45
=== Authentication ===
Signature: KFDT2Z5GZ4Z0K5KEPZ9TU967BARMQDA7
Passed!
------------------------------
------------------------------
2016-01-05 03:40:10
=== Authentication attempt ===
Signature: W79WQ3LJ8G48DX2NBD4BV8D2I1WJZAPC
------------------------------
------------------------------
2016-01-05 03:40:11
=== Authentication ===
Signature: W79WQ3LJ8G48DX2NBD4BV8D2I1WJZAPC
Failed!
------------------------------
------------------------------
2016-01-05 03:40:16
=== Authentication attempt ===
Signature: WI04782DA5Y42FGUM5X6SVQSQKHMD6O3
------------------------------
------------------------------
2016-01-05 03:40:18
=== Authentication ===
Signature: WI04782DA5Y42FGUM5X6SVQSQKHMD6O3
Failed!
------------------------------
------------------------------
2016-01-05 03:41:15
=== Authentication attempt ===
Signature: G4V58UWS23P527DV4PTWDCT6PXIF56PW
------------------------------
------------------------------
2016-01-05 03:41:16
=== Authentication ===
Signature: G4V58UWS23P527DV4PTWDCT6PXIF56PW
Failed!
------------------------------
------------------------------
2016-01-05 03:43:15
=== Authentication attempt ===
Signature: 0DRXPLPXJ6UBQIKZLZF3U2LUSN0YUCN0
------------------------------
------------------------------
2016-01-05 03:43:17
=== Authentication ===
Signature: 0DRXPLPXJ6UBQIKZLZF3U2LUSN0YUCN0
Failed!
------------------------------
------------------------------
2016-01-05 03:43:57
=== Authentication attempt ===
Signature: K24ESM6465XQTSSJHU435JT3YEM5LMN2
------------------------------
------------------------------
2016-01-05 03:43:58
=== Authentication ===
Signature: K24ESM6465XQTSSJHU435JT3YEM5LMN2
Failed!
------------------------------
------------------------------
2016-01-05 03:45:00
=== Authentication attempt ===
Signature: KHD8JG93LJWWXM2YNH4UXZH1ZAW2C8N4
------------------------------
------------------------------
2016-01-05 03:45:02
=== Authentication ===
Signature: KHD8JG93LJWWXM2YNH4UXZH1ZAW2C8N4
Failed!
------------------------------
------------------------------
2016-01-05 03:45:31
=== Authentication attempt ===
Signature: 86KLCI1JXRML7GCETA3ROYFOCGO4QX8W
------------------------------
------------------------------
2016-01-05 03:45:32
=== Authentication ===
Signature: 86KLCI1JXRML7GCETA3ROYFOCGO4QX8W
Failed!
------------------------------
------------------------------
2016-01-05 03:45:33
=== Authentication attempt ===
Signature: 86KLCI1JXRML7GCETA3ROYFOCGO4QX8W
------------------------------
------------------------------
2016-01-05 03:45:35
=== Authentication ===
Signature: 86KLCI1JXRML7GCETA3ROYFOCGO4QX8W
Failed!
------------------------------
------------------------------
2016-01-05 03:45:48
=== Authentication attempt ===
Signature: 86KLCI1JXRML7GCETA3ROYFOCGO4QX8W
------------------------------
------------------------------
2016-01-05 03:45:50
=== Authentication ===
Signature: 86KLCI1JXRML7GCETA3ROYFOCGO4QX8W
Failed!
------------------------------
------------------------------
2016-01-05 03:46:00
=== Authentication attempt ===
Signature: 86KLCI1JXRML7GCETA3ROYFOCGO4QX8W
------------------------------
------------------------------
2016-01-05 03:46:01
=== Authentication ===
Signature: 86KLCI1JXRML7GCETA3ROYFOCGO4QX8W
Failed!
------------------------------
------------------------------
2016-01-05 03:46:34
=== Authentication attempt ===
Signature: 86KLCI1JXRML7GCETA3ROYFOCGO4QX8W
------------------------------
------------------------------
2016-01-05 03:46:35
=== Authentication ===
Signature: 86KLCI1JXRML7GCETA3ROYFOCGO4QX8W
Failed!
------------------------------
------------------------------
2016-01-05 03:47:14
=== Authentication attempt ===
Signature: 86KLCI1JXRML7GCETA3ROYFOCGO4QX8W
------------------------------
------------------------------
2016-01-05 03:47:16
=== Authentication ===
Signature: 86KLCI1JXRML7GCETA3ROYFOCGO4QX8W
Failed!
------------------------------
------------------------------
2016-01-05 03:48:00
=== Authentication attempt ===
Signature: 86KLCI1JXRML7GCETA3ROYFOCGO4QX8W
------------------------------
------------------------------
2016-01-05 03:48:01
=== Authentication ===
Signature: 86KLCI1JXRML7GCETA3ROYFOCGO4QX8W
Passed!
------------------------------
------------------------------
2016-01-05 03:48:31
=== Authentication attempt ===
Signature: 86KLCI1JXRML7GCETA3ROYFOCGO4QX8W
------------------------------
------------------------------
2016-01-05 03:48:33
=== Authentication ===
Signature: 86KLCI1JXRML7GCETA3ROYFOCGO4QX8W
Passed!
------------------------------
------------------------------
2016-01-05 03:48:33
New token generation request!
Username: egorikem
------------------------------
------------------------------
2016-01-05 03:50:37
=== Authentication attempt ===
Signature: 86KLCI1JXRML7GCETA3ROYFOCGO4QX8W
------------------------------
------------------------------
2016-01-05 03:50:37
=== Authentication === 
Signature: 86KLCI1JXRML7GCETA3ROYFOCGO4QX8W
Passed!
------------------------------
------------------------------
2016-01-05 03:50:37
=== Authentication ===
Signature: 86KLCI1JXRML7GCETA3ROYFOCGO4QX8W
Passed!
------------------------------
------------------------------
2016-01-05 03:50:44
=== Authentication attempt ===
Signature: 86KLCI1JXRML7GCETA3ROYFOCGO4QX8W
------------------------------
------------------------------
2016-01-05 03:50:44
=== Authentication === 
Signature: 86KLCI1JXRML7GCETA3ROYFOCGO4QX8W
Passed!
------------------------------
------------------------------
2016-01-05 03:50:44
=== Authentication ===
Signature: 86KLCI1JXRML7GCETA3ROYFOCGO4QX8W
Passed!
------------------------------
------------------------------
2016-01-05 03:50:54
=== Authentication attempt ===
Signature: 86KLCI1JXRML7GCETA3ROYFOCGO4QX8W
------------------------------
------------------------------
2016-01-05 03:50:54
=== Authentication === 
Signature: 86KLCI1JXRML7GCETA3ROYFOCGO4QX8W
Passed!
------------------------------
------------------------------
2016-01-05 03:50:54
=== Authentication ===
Signature: 86KLCI1JXRML7GCETA3ROYFOCGO4QX8W
Passed!
------------------------------
------------------------------
2016-01-05 04:04:24
=== Authentication attempt ===
Signature: 86KLCI1JXRML7GCETA3ROYFOCGO4QX8W
------------------------------
------------------------------
2016-01-05 04:04:24
=== Authentication === 
Signature: 86KLCI1JXRML7GCETA3ROYFOCGO4QX8W
Passed!
------------------------------
------------------------------
2016-01-05 04:04:24
=== Authentication ===
Signature: 86KLCI1JXRML7GCETA3ROYFOCGO4QX8W
Passed!
------------------------------
------------------------------
2016-01-05 04:23:06
=== Authentication attempt ===
Signature: 86KLCI1JXRML7GCETA3ROYFOCGO4QX8W
------------------------------
------------------------------
2016-01-05 04:23:06
=== Authentication === 
Signature: 86KLCI1JXRML7GCETA3ROYFOCGO4QX8W
Passed!
------------------------------
------------------------------
2016-01-05 04:23:06
=== Authentication ===
Signature: 86KLCI1JXRML7GCETA3ROYFOCGO4QX8W
Passed!
------------------------------
------------------------------
2016-01-05 04:23:09
=== Authentication attempt ===
Signature: 86KLCI1JXRML7GCETA3ROYFOCGO4QX8W
------------------------------
------------------------------
2016-01-05 04:23:09
=== Authentication === 
Signature: 86KLCI1JXRML7GCETA3ROYFOCGO4QX8W
Passed!
------------------------------
------------------------------
2016-01-05 04:23:09
=== Authentication ===
Signature: 86KLCI1JXRML7GCETA3ROYFOCGO4QX8W
Passed!
------------------------------
------------------------------
2016-01-05 04:23:38
=== Authentication attempt ===
Signature: 86KLCI1JXRML7GCETA3ROYFOCGO4QX8W
------------------------------
------------------------------
2016-01-05 04:23:38
=== Authentication === 
Signature: 86KLCI1JXRML7GCETA3ROYFOCGO4QX8W
Passed!
------------------------------
------------------------------
2016-01-05 04:23:38
=== Authentication ===
Signature: 86KLCI1JXRML7GCETA3ROYFOCGO4QX8W
Passed!
------------------------------
------------------------------
2016-01-05 04:23:38
=== Authentication attempt ===
Signature: 86KLCI1JXRML7GCETA3ROYFOCGO4QX8W
------------------------------
------------------------------
2016-01-05 04:23:38
=== Authentication === 
Signature: 86KLCI1JXRML7GCETA3ROYFOCGO4QX8W
Passed!
------------------------------
------------------------------
2016-01-05 04:23:38
=== Authentication ===
Signature: 86KLCI1JXRML7GCETA3ROYFOCGO4QX8W
Passed!
------------------------------
------------------------------
2016-01-05 04:23:50
=== Authentication attempt ===
Signature: 86KLCI1JXRML7GCETA3ROYFOCGO4QX8W
------------------------------
------------------------------
2016-01-05 04:23:50
=== Authentication === 
Signature: 86KLCI1JXRML7GCETA3ROYFOCGO4QX8W
Passed!
------------------------------
------------------------------
2016-01-05 04:23:50
=== Authentication ===
Signature: 86KLCI1JXRML7GCETA3ROYFOCGO4QX8W
Passed!
------------------------------
------------------------------
2016-01-05 04:24:10
=== Authentication attempt ===
Signature: 86KLCI1JXRML7GCETA3ROYFOCGO4QX8W
------------------------------
------------------------------
2016-01-05 04:24:10
=== Authentication === 
Signature: 86KLCI1JXRML7GCETA3ROYFOCGO4QX8W
Passed!
------------------------------
------------------------------
2016-01-05 04:24:10
=== Authentication ===
Signature: 86KLCI1JXRML7GCETA3ROYFOCGO4QX8W
Passed!
------------------------------
------------------------------
2016-01-05 04:24:36
=== Authentication attempt ===
Signature: 86KLCI1JXRML7GCETA3ROYFOCGO4QX8W
------------------------------
------------------------------
2016-01-05 04:24:36
=== Authentication === 
Signature: 86KLCI1JXRML7GCETA3ROYFOCGO4QX8W
Passed!
------------------------------
------------------------------
2016-01-05 04:24:36
=== Authentication ===
Signature: 86KLCI1JXRML7GCETA3ROYFOCGO4QX8W
Passed!
------------------------------
------------------------------
2016-01-05 04:24:46
=== Authentication attempt ===
Signature: 86KLCI1JXRML7GCETA3ROYFOCGO4QX8W
------------------------------
------------------------------
2016-01-05 04:24:46
=== Authentication === 
Signature: 86KLCI1JXRML7GCETA3ROYFOCGO4QX8W
Passed!
------------------------------
------------------------------
2016-01-05 04:24:46
=== Authentication ===
Signature: 86KLCI1JXRML7GCETA3ROYFOCGO4QX8W
Passed!
------------------------------
------------------------------
2016-01-05 04:29:14
=== Authentication attempt ===
Signature: 86KLCI1JXRML7GCETA3ROYFOCGO4QX8W
------------------------------
------------------------------
2016-01-05 04:29:14
=== Authentication === 
Signature: 86KLCI1JXRML7GCETA3ROYFOCGO4QX8W
Passed!
------------------------------
------------------------------
2016-01-05 04:29:14
=== Authentication ===
Signature: 86KLCI1JXRML7GCETA3ROYFOCGO4QX8W
Passed!
------------------------------
------------------------------
2016-01-05 04:38:51
=== Authentication attempt ===
Signature: 86KLCI1JXRML7GCETA3ROYFOCGO4QX8W
------------------------------
------------------------------
2016-01-05 04:38:51
=== Authentication === 
Signature: 86KLCI1JXRML7GCETA3ROYFOCGO4QX8W
Passed!
------------------------------
------------------------------
2016-01-05 04:38:51
=== Authentication ===
Signature: 86KLCI1JXRML7GCETA3ROYFOCGO4QX8W
Passed!
------------------------------
------------------------------
2016-01-05 04:39:02
=== Authentication attempt ===
Signature: 86KLCI1JXRML7GCETA3ROYFOCGO4QX8W
------------------------------
------------------------------
2016-01-05 04:39:02
=== Authentication === 
Signature: 86KLCI1JXRML7GCETA3ROYFOCGO4QX8W
Passed!
------------------------------
------------------------------
2016-01-05 04:39:02
=== Authentication ===
Signature: 86KLCI1JXRML7GCETA3ROYFOCGO4QX8W
Passed!
------------------------------
------------------------------
2016-01-05 04:47:58
=== Authentication attempt ===
Signature: 86KLCI1JXRML7GCETA3ROYFOCGO4QX8W
------------------------------
------------------------------
2016-01-05 04:47:58
=== Authentication === 
Signature: 86KLCI1JXRML7GCETA3ROYFOCGO4QX8W
Passed!
------------------------------
------------------------------
2016-01-05 04:47:58
=== Authentication ===
Signature: 86KLCI1JXRML7GCETA3ROYFOCGO4QX8W
Passed!
------------------------------
------------------------------
2016-01-05 04:48:01
=== Authentication attempt ===
Signature: 86KLCI1JXRML7GCETA3ROYFOCGO4QX8W
------------------------------
------------------------------
2016-01-05 04:48:01
=== Authentication === 
Signature: 86KLCI1JXRML7GCETA3ROYFOCGO4QX8W
Passed!
------------------------------
------------------------------
2016-01-05 04:48:01
=== Authentication ===
Signature: 86KLCI1JXRML7GCETA3ROYFOCGO4QX8W
Passed!
------------------------------
------------------------------
2016-01-05 04:51:28
=== Authentication attempt ===
Signature: 86KLCI1JXRML7GCETA3ROYFOCGO4QX8W
------------------------------
------------------------------
2016-01-05 04:51:28
=== Authentication === 
Signature: 86KLCI1JXRML7GCETA3ROYFOCGO4QX8W
Passed!
------------------------------
------------------------------
2016-01-05 04:51:28
=== Authentication ===
Signature: 86KLCI1JXRML7GCETA3ROYFOCGO4QX8W
Passed!
------------------------------
------------------------------
2016-01-05 04:51:28
=== Authentication attempt ===
Signature: 86KLCI1JXRML7GCETA3ROYFOCGO4QX8W
------------------------------
------------------------------
2016-01-05 04:51:28
=== Authentication === 
Signature: 86KLCI1JXRML7GCETA3ROYFOCGO4QX8W
Passed!
------------------------------
------------------------------
2016-01-05 04:51:28
=== Authentication ===
Signature: 86KLCI1JXRML7GCETA3ROYFOCGO4QX8W
Passed!
------------------------------
------------------------------
2016-01-05 04:52:10
=== Authentication attempt ===
Signature: 86KLCI1JXRML7GCETA3ROYFOCGO4QX8W
------------------------------
------------------------------
2016-01-05 04:52:10
=== Authentication === 
Signature: 86KLCI1JXRML7GCETA3ROYFOCGO4QX8W
Passed!
------------------------------
------------------------------
2016-01-05 04:52:10
=== Authentication ===
Signature: 86KLCI1JXRML7GCETA3ROYFOCGO4QX8W
Passed!
------------------------------
------------------------------
2016-01-05 04:52:37
=== Authentication attempt ===
Signature: 86KLCI1JXRML7GCETA3ROYFOCGO4QX8W
------------------------------
------------------------------
2016-01-05 04:52:37
=== Authentication === 
Signature: 86KLCI1JXRML7GCETA3ROYFOCGO4QX8W
Passed!
------------------------------
------------------------------
2016-01-05 04:52:37
=== Authentication ===
Signature: 86KLCI1JXRML7GCETA3ROYFOCGO4QX8W
Passed!
------------------------------
------------------------------
2016-01-05 04:53:18
=== Authentication attempt ===
Signature: 86KLCI1JXRML7GCETA3ROYFOCGO4QX8W
------------------------------
------------------------------
2016-01-05 04:53:18
=== Authentication === 
Signature: 86KLCI1JXRML7GCETA3ROYFOCGO4QX8W
Passed!
------------------------------
------------------------------
2016-01-05 04:53:18
=== Authentication ===
Signature: 86KLCI1JXRML7GCETA3ROYFOCGO4QX8W
Passed!
------------------------------
------------------------------
2016-01-05 04:53:22
=== Authentication attempt ===
Signature: 86KLCI1JXRML7GCETA3ROYFOCGO4QX8W
------------------------------
------------------------------
2016-01-05 04:53:22
=== Authentication === 
Signature: 86KLCI1JXRML7GCETA3ROYFOCGO4QX8W
Passed!
------------------------------
------------------------------
2016-01-05 04:53:22
=== Authentication ===
Signature: 86KLCI1JXRML7GCETA3ROYFOCGO4QX8W
Passed!
------------------------------
------------------------------
2016-01-05 04:54:16
=== Authentication attempt ===
Signature: 86KLCI1JXRML7GCETA3ROYFOCGO4QX8W
------------------------------
------------------------------
2016-01-05 04:54:16
=== Authentication === 
Signature: 86KLCI1JXRML7GCETA3ROYFOCGO4QX8W
Passed!
------------------------------
------------------------------
2016-01-05 04:54:16
=== Authentication ===
Signature: 86KLCI1JXRML7GCETA3ROYFOCGO4QX8W
Passed!
------------------------------
------------------------------
2016-01-05 04:58:43
=== Authentication attempt ===
Signature: 86KLCI1JXRML7GCETA3ROYFOCGO4QX8W
------------------------------
------------------------------
2016-01-05 04:58:43
=== Authentication === 
Signature: 86KLCI1JXRML7GCETA3ROYFOCGO4QX8W
Passed!
------------------------------
------------------------------
2016-01-05 04:58:43
=== Authentication ===
Signature: 86KLCI1JXRML7GCETA3ROYFOCGO4QX8W
Passed!
------------------------------
------------------------------
2016-01-05 05:02:44
=== Authentication attempt ===
Signature: 86KLCI1JXRML7GCETA3ROYFOCGO4QX8W
------------------------------
------------------------------
2016-01-05 05:02:44
=== Authentication === 
Signature: 86KLCI1JXRML7GCETA3ROYFOCGO4QX8W
Passed!
------------------------------
------------------------------
2016-01-05 05:02:44
=== Authentication ===
Signature: 86KLCI1JXRML7GCETA3ROYFOCGO4QX8W
Passed!
------------------------------
------------------------------
2016-01-05 05:05:20
=== Authentication attempt ===
Signature: 86KLCI1JXRML7GCETA3ROYFOCGO4QX8W
------------------------------
------------------------------
2016-01-05 05:05:20
=== Authentication === 
Signature: 86KLCI1JXRML7GCETA3ROYFOCGO4QX8W
Passed!
------------------------------
------------------------------
2016-01-05 05:05:20
=== Authentication ===
Signature: 86KLCI1JXRML7GCETA3ROYFOCGO4QX8W
Passed!
------------------------------
------------------------------
2016-01-05 05:05:42
=== Authentication attempt ===
Signature: 86KLCI1JXRML7GCETA3ROYFOCGO4QX8W
------------------------------
------------------------------
2016-01-05 05:05:42
=== Authentication === 
Signature: 86KLCI1JXRML7GCETA3ROYFOCGO4QX8W
Passed!
------------------------------
------------------------------
2016-01-05 05:05:42
=== Authentication ===
Signature: 86KLCI1JXRML7GCETA3ROYFOCGO4QX8W
Passed!
------------------------------
------------------------------
2016-01-05 05:05:55
=== Authentication attempt ===
Signature: 86KLCI1JXRML7GCETA3ROYFOCGO4QX8W
------------------------------
------------------------------
2016-01-05 05:05:55
=== Authentication === 
Signature: 86KLCI1JXRML7GCETA3ROYFOCGO4QX8W
Passed!
------------------------------
------------------------------
2016-01-05 05:05:55
=== Authentication ===
Signature: 86KLCI1JXRML7GCETA3ROYFOCGO4QX8W
Passed!
------------------------------
------------------------------
2016-01-05 05:05:56
=== Authentication attempt ===
Signature: 86KLCI1JXRML7GCETA3ROYFOCGO4QX8W
------------------------------
------------------------------
2016-01-05 05:05:56
=== Authentication === 
Signature: 86KLCI1JXRML7GCETA3ROYFOCGO4QX8W
Passed!
------------------------------
------------------------------
2016-01-05 05:05:56
=== Authentication ===
Signature: 86KLCI1JXRML7GCETA3ROYFOCGO4QX8W
Passed!
------------------------------
------------------------------
2016-01-05 05:06:45
=== Authentication attempt ===
Signature: 86KLCI1JXRML7GCETA3ROYFOCGO4QX8W
------------------------------
------------------------------
2016-01-05 05:06:45
=== Authentication === 
Signature: 86KLCI1JXRML7GCETA3ROYFOCGO4QX8W
Passed!
------------------------------
------------------------------
2016-01-05 05:06:45
=== Authentication ===
Signature: 86KLCI1JXRML7GCETA3ROYFOCGO4QX8W
Passed!
------------------------------
------------------------------
2016-01-05 05:06:50
=== Authentication attempt ===
Signature: 86KLCI1JXRML7GCETA3ROYFOCGO4QX8W
------------------------------
------------------------------
2016-01-05 05:06:50
=== Authentication === 
Signature: 86KLCI1JXRML7GCETA3ROYFOCGO4QX8W
Passed!
------------------------------
------------------------------
2016-01-05 05:06:50
=== Authentication ===
Signature: 86KLCI1JXRML7GCETA3ROYFOCGO4QX8W
Passed!
------------------------------
------------------------------
2016-01-05 05:07:04
=== Authentication attempt ===
Signature: 86KLCI1JXRML7GCETA3ROYFOCGO4QX8W
------------------------------
------------------------------
2016-01-05 05:07:04
=== Authentication === 
Signature: 86KLCI1JXRML7GCETA3ROYFOCGO4QX8W
Passed!
------------------------------
------------------------------
2016-01-05 05:07:04
=== Authentication ===
Signature: 86KLCI1JXRML7GCETA3ROYFOCGO4QX8W
Passed!
------------------------------
------------------------------
2016-01-05 05:07:38
=== Authentication attempt ===
Signature: 86KLCI1JXRML7GCETA3ROYFOCGO4QX8W
------------------------------
------------------------------
2016-01-05 05:07:38
=== Authentication === 
Signature: 86KLCI1JXRML7GCETA3ROYFOCGO4QX8W
Passed!
------------------------------
------------------------------
2016-01-05 05:07:38
=== Authentication ===
Signature: 86KLCI1JXRML7GCETA3ROYFOCGO4QX8W
Passed!
------------------------------
------------------------------
2016-01-05 05:07:40
=== Authentication attempt ===
Signature: 86KLCI1JXRML7GCETA3ROYFOCGO4QX8W
------------------------------
------------------------------
2016-01-05 05:07:40
=== Authentication === 
Signature: 86KLCI1JXRML7GCETA3ROYFOCGO4QX8W
Passed!
------------------------------
------------------------------
2016-01-05 05:07:40
=== Authentication ===
Signature: 86KLCI1JXRML7GCETA3ROYFOCGO4QX8W
Passed!
------------------------------
------------------------------
2016-01-05 05:07:43
=== Authentication attempt ===
Signature: 86KLCI1JXRML7GCETA3ROYFOCGO4QX8W
------------------------------
------------------------------
2016-01-05 05:07:43
=== Authentication === 
Signature: 86KLCI1JXRML7GCETA3ROYFOCGO4QX8W
Passed!
------------------------------
------------------------------
2016-01-05 05:07:43
=== Authentication ===
Signature: 86KLCI1JXRML7GCETA3ROYFOCGO4QX8W
Passed!
------------------------------
------------------------------
2016-01-05 05:11:09
=== Authentication attempt ===
Signature: 86KLCI1JXRML7GCETA3ROYFOCGO4QX8W
------------------------------
------------------------------
2016-01-05 05:11:09
=== Authentication === 
Signature: 86KLCI1JXRML7GCETA3ROYFOCGO4QX8W
Passed!
------------------------------
------------------------------
2016-01-05 05:11:09
=== Authentication ===
Signature: 86KLCI1JXRML7GCETA3ROYFOCGO4QX8W
Passed!
------------------------------
------------------------------
2016-01-05 05:11:28
=== Authentication attempt ===
Signature: 86KLCI1JXRML7GCETA3ROYFOCGO4QX8W
------------------------------
------------------------------
2016-01-05 05:11:28
=== Authentication === 
Signature: 86KLCI1JXRML7GCETA3ROYFOCGO4QX8W
Passed!
------------------------------
------------------------------
2016-01-05 05:11:28
=== Authentication ===
Signature: 86KLCI1JXRML7GCETA3ROYFOCGO4QX8W
Passed!
------------------------------
------------------------------
2016-01-05 05:27:00
=== Authentication attempt ===
Signature: 86KLCI1JXRML7GCETA3ROYFOCGO4QX8W
------------------------------
------------------------------
2016-01-05 05:27:00
=== Authentication === 
Signature: 86KLCI1JXRML7GCETA3ROYFOCGO4QX8W
Passed!
------------------------------
------------------------------
2016-01-05 05:27:00
=== Authentication ===
Signature: 86KLCI1JXRML7GCETA3ROYFOCGO4QX8W
Passed!
------------------------------
------------------------------
2016-01-05 05:28:30
=== Authentication attempt ===
Signature: 86KLCI1JXRML7GCETA3ROYFOCGO4QX8W
------------------------------
------------------------------
2016-01-05 05:28:30
=== Authentication === 
Signature: 86KLCI1JXRML7GCETA3ROYFOCGO4QX8W
Passed!
------------------------------
------------------------------
2016-01-05 05:28:30
=== Authentication ===
Signature: 86KLCI1JXRML7GCETA3ROYFOCGO4QX8W
Passed!
------------------------------
------------------------------
2016-01-05 05:28:57
=== Authentication attempt ===
Signature: 86KLCI1JXRML7GCETA3ROYFOCGO4QX8W
------------------------------
------------------------------
2016-01-05 05:28:57
=== Authentication === 
Signature: 86KLCI1JXRML7GCETA3ROYFOCGO4QX8W
Passed!
------------------------------
------------------------------
2016-01-05 05:28:57
=== Authentication ===
Signature: 86KLCI1JXRML7GCETA3ROYFOCGO4QX8W
Passed!
------------------------------
------------------------------
2016-01-05 05:29:00
=== Authentication attempt ===
Signature: 86KLCI1JXRML7GCETA3ROYFOCGO4QX8W
------------------------------
------------------------------
2016-01-05 05:29:00
=== Authentication === 
Signature: 86KLCI1JXRML7GCETA3ROYFOCGO4QX8W
Passed!
------------------------------
------------------------------
2016-01-05 05:29:00
=== Authentication ===
Signature: 86KLCI1JXRML7GCETA3ROYFOCGO4QX8W
Passed!
------------------------------
------------------------------
2016-01-05 05:29:01
=== Authentication attempt ===
Signature: 86KLCI1JXRML7GCETA3ROYFOCGO4QX8W
------------------------------
------------------------------
2016-01-05 05:29:01
=== Authentication === 
Signature: 86KLCI1JXRML7GCETA3ROYFOCGO4QX8W
Passed!
------------------------------
------------------------------
2016-01-05 05:29:01
=== Authentication ===
Signature: 86KLCI1JXRML7GCETA3ROYFOCGO4QX8W
Passed!
------------------------------
------------------------------
2016-01-05 05:29:01
=== Authentication attempt ===
Signature: 86KLCI1JXRML7GCETA3ROYFOCGO4QX8W
------------------------------
------------------------------
2016-01-05 05:29:01
=== Authentication === 
Signature: 86KLCI1JXRML7GCETA3ROYFOCGO4QX8W
Passed!
------------------------------
------------------------------
2016-01-05 05:29:01
=== Authentication ===
Signature: 86KLCI1JXRML7GCETA3ROYFOCGO4QX8W
Passed!
------------------------------
------------------------------
2016-01-05 05:29:02
=== Authentication attempt ===
Signature: 86KLCI1JXRML7GCETA3ROYFOCGO4QX8W
------------------------------
------------------------------
2016-01-05 05:29:02
=== Authentication === 
Signature: 86KLCI1JXRML7GCETA3ROYFOCGO4QX8W
Passed!
------------------------------
------------------------------
2016-01-05 05:29:02
=== Authentication ===
Signature: 86KLCI1JXRML7GCETA3ROYFOCGO4QX8W
Passed!
------------------------------
------------------------------
2016-01-05 05:29:02
=== Authentication attempt ===
Signature: 86KLCI1JXRML7GCETA3ROYFOCGO4QX8W
------------------------------
------------------------------
2016-01-05 05:29:02
=== Authentication === 
Signature: 86KLCI1JXRML7GCETA3ROYFOCGO4QX8W
Passed!
------------------------------
------------------------------
2016-01-05 05:29:02
=== Authentication ===
Signature: 86KLCI1JXRML7GCETA3ROYFOCGO4QX8W
Passed!
------------------------------
------------------------------
2016-01-05 05:38:09
=== Authentication attempt ===
Signature: 86KLCI1JXRML7GCETA3ROYFOCGO4QX8W
------------------------------
------------------------------
2016-01-05 05:38:09
=== Authentication === 
Signature: 86KLCI1JXRML7GCETA3ROYFOCGO4QX8W
Passed!
------------------------------
------------------------------
2016-01-05 05:38:09
=== Authentication ===
Signature: 86KLCI1JXRML7GCETA3ROYFOCGO4QX8W
Passed!
------------------------------
------------------------------
2016-01-05 05:38:22
=== Authentication attempt ===
Signature: 86KLCI1JXRML7GCETA3ROYFOCGO4QX8W
------------------------------
------------------------------
2016-01-05 05:38:22
=== Authentication === 
Signature: 86KLCI1JXRML7GCETA3ROYFOCGO4QX8W
Passed!
------------------------------
------------------------------
2016-01-05 05:38:22
=== Authentication ===
Signature: 86KLCI1JXRML7GCETA3ROYFOCGO4QX8W
Passed!
------------------------------
------------------------------
2016-01-05 05:40:32
=== Authentication attempt ===
Signature: 86KLCI1JXRML7GCETA3ROYFOCGO4QX8W
------------------------------
------------------------------
2016-01-05 05:40:32
=== Authentication === 
Signature: 86KLCI1JXRML7GCETA3ROYFOCGO4QX8W
Passed!
------------------------------
------------------------------
2016-01-05 05:40:32
=== Authentication ===
Signature: 86KLCI1JXRML7GCETA3ROYFOCGO4QX8W
Passed!
------------------------------
------------------------------
2016-01-05 05:40:34
=== Authentication attempt ===
Signature: 86KLCI1JXRML7GCETA3ROYFOCGO4QX8W
------------------------------
------------------------------
2016-01-05 05:40:34
=== Authentication === 
Signature: 86KLCI1JXRML7GCETA3ROYFOCGO4QX8W
Passed!
------------------------------
------------------------------
2016-01-05 05:40:34
=== Authentication ===
Signature: 86KLCI1JXRML7GCETA3ROYFOCGO4QX8W
Passed!
------------------------------
------------------------------
2016-01-05 05:40:34
=== Authentication attempt ===
Signature: 86KLCI1JXRML7GCETA3ROYFOCGO4QX8W
------------------------------
------------------------------
2016-01-05 05:40:34
=== Authentication === 
Signature: 86KLCI1JXRML7GCETA3ROYFOCGO4QX8W
Passed!
------------------------------
------------------------------
2016-01-05 05:40:34
=== Authentication ===
Signature: 86KLCI1JXRML7GCETA3ROYFOCGO4QX8W
Passed!
------------------------------
------------------------------
2016-01-05 05:40:35
=== Authentication attempt ===
Signature: 86KLCI1JXRML7GCETA3ROYFOCGO4QX8W
------------------------------
------------------------------
2016-01-05 05:40:35
=== Authentication === 
Signature: 86KLCI1JXRML7GCETA3ROYFOCGO4QX8W
Passed!
------------------------------
------------------------------
2016-01-05 05:40:35
=== Authentication ===
Signature: 86KLCI1JXRML7GCETA3ROYFOCGO4QX8W
Passed!
------------------------------
------------------------------
2016-01-05 05:40:51
=== Authentication attempt ===
Signature: 86KLCI1JXRML7GCETA3ROYFOCGO4QX8W
------------------------------
------------------------------
2016-01-05 05:40:51
=== Authentication === 
Signature: 86KLCI1JXRML7GCETA3ROYFOCGO4QX8W
Passed!
------------------------------
------------------------------
2016-01-05 05:40:51
=== Authentication ===
Signature: 86KLCI1JXRML7GCETA3ROYFOCGO4QX8W
Passed!
------------------------------
------------------------------
2016-01-05 05:41:08
=== Authentication attempt ===
Signature: 86KLCI1JXRML7GCETA3ROYFOCGO4QX8W
------------------------------
------------------------------
2016-01-05 05:41:08
=== Authentication === 
Signature: 86KLCI1JXRML7GCETA3ROYFOCGO4QX8W
Passed!
------------------------------
------------------------------
2016-01-05 05:41:08
=== Authentication ===
Signature: 86KLCI1JXRML7GCETA3ROYFOCGO4QX8W
Passed!
------------------------------
------------------------------
2016-01-05 05:41:13
=== Authentication attempt ===
Signature: 86KLCI1JXRML7GCETA3ROYFOCGO4QX8W
------------------------------
------------------------------
2016-01-05 05:41:13
=== Authentication === 
Signature: 86KLCI1JXRML7GCETA3ROYFOCGO4QX8W
Passed!
------------------------------
------------------------------
2016-01-05 05:41:13
=== Authentication ===
Signature: 86KLCI1JXRML7GCETA3ROYFOCGO4QX8W
Passed!
------------------------------
------------------------------
2016-01-05 05:42:41
=== Authentication attempt ===
Signature: 86KLCI1JXRML7GCETA3ROYFOCGO4QX8W
------------------------------
------------------------------
2016-01-05 05:42:41
=== Authentication === 
Signature: 86KLCI1JXRML7GCETA3ROYFOCGO4QX8W
Passed!
------------------------------
------------------------------
2016-01-05 05:42:41
=== Authentication ===
Signature: 86KLCI1JXRML7GCETA3ROYFOCGO4QX8W
Passed!
------------------------------
------------------------------
2016-01-05 05:42:57
=== Authentication attempt ===
Signature: 86KLCI1JXRML7GCETA3ROYFOCGO4QX8W
------------------------------
------------------------------
2016-01-05 05:42:57
=== Authentication === 
Signature: 86KLCI1JXRML7GCETA3ROYFOCGO4QX8W
Passed!
------------------------------
------------------------------
2016-01-05 05:42:57
=== Authentication ===
Signature: 86KLCI1JXRML7GCETA3ROYFOCGO4QX8W
Passed!
------------------------------
------------------------------
2016-01-05 05:43:10
=== Authentication attempt ===
Signature: 86KLCI1JXRML7GCETA3ROYFOCGO4QX8W
------------------------------
------------------------------
2016-01-05 05:43:10
=== Authentication === 
Signature: 86KLCI1JXRML7GCETA3ROYFOCGO4QX8W
Passed!
------------------------------
------------------------------
2016-01-05 05:43:10
=== Authentication ===
Signature: 86KLCI1JXRML7GCETA3ROYFOCGO4QX8W
Passed!
------------------------------
------------------------------
2016-01-05 05:43:21
=== Authentication attempt ===
Signature: 86KLCI1JXRML7GCETA3ROYFOCGO4QX8W
------------------------------
------------------------------
2016-01-05 05:43:21
=== Authentication === 
Signature: 86KLCI1JXRML7GCETA3ROYFOCGO4QX8W
Passed!
------------------------------
------------------------------
2016-01-05 05:43:21
=== Authentication ===
Signature: 86KLCI1JXRML7GCETA3ROYFOCGO4QX8W
Passed!
------------------------------
------------------------------
2016-01-05 05:43:32
=== Authentication attempt ===
Signature: 86KLCI1JXRML7GCETA3ROYFOCGO4QX8W
------------------------------
------------------------------
2016-01-05 05:43:32
=== Authentication === 
Signature: 86KLCI1JXRML7GCETA3ROYFOCGO4QX8W
Passed!
------------------------------
------------------------------
2016-01-05 05:43:32
=== Authentication ===
Signature: 86KLCI1JXRML7GCETA3ROYFOCGO4QX8W
Passed!
------------------------------
------------------------------
2016-01-05 05:43:50
=== Authentication attempt ===
Signature: 86KLCI1JXRML7GCETA3ROYFOCGO4QX8W
------------------------------
------------------------------
2016-01-05 05:43:50
=== Authentication === 
Signature: 86KLCI1JXRML7GCETA3ROYFOCGO4QX8W
Passed!
------------------------------
------------------------------
2016-01-05 05:43:50
=== Authentication ===
Signature: 86KLCI1JXRML7GCETA3ROYFOCGO4QX8W
Passed!
------------------------------
------------------------------
2016-01-05 05:44:03
=== Authentication attempt ===
Signature: 86KLCI1JXRML7GCETA3ROYFOCGO4QX8W
------------------------------
------------------------------
2016-01-05 05:44:03
=== Authentication === 
Signature: 86KLCI1JXRML7GCETA3ROYFOCGO4QX8W
Passed!
------------------------------
------------------------------
2016-01-05 05:44:03
=== Authentication ===
Signature: 86KLCI1JXRML7GCETA3ROYFOCGO4QX8W
Passed!
------------------------------
------------------------------
2016-01-05 05:44:16
=== Authentication attempt ===
Signature: 86KLCI1JXRML7GCETA3ROYFOCGO4QX8W
------------------------------
------------------------------
2016-01-05 05:44:16
=== Authentication === 
Signature: 86KLCI1JXRML7GCETA3ROYFOCGO4QX8W
Passed!
------------------------------
------------------------------
2016-01-05 05:44:16
=== Authentication ===
Signature: 86KLCI1JXRML7GCETA3ROYFOCGO4QX8W
Passed!
------------------------------
------------------------------
2016-01-05 05:44:27
=== Authentication attempt ===
Signature: 86KLCI1JXRML7GCETA3ROYFOCGO4QX8W
------------------------------
------------------------------
2016-01-05 05:44:27
=== Authentication === 
Signature: 86KLCI1JXRML7GCETA3ROYFOCGO4QX8W
Passed!
------------------------------
------------------------------
2016-01-05 05:44:27
=== Authentication ===
Signature: 86KLCI1JXRML7GCETA3ROYFOCGO4QX8W
Passed!
------------------------------
------------------------------
2016-01-05 05:44:40
=== Authentication attempt ===
Signature: 86KLCI1JXRML7GCETA3ROYFOCGO4QX8W
------------------------------
------------------------------
2016-01-05 05:44:40
=== Authentication === 
Signature: 86KLCI1JXRML7GCETA3ROYFOCGO4QX8W
Passed!
------------------------------
------------------------------
2016-01-05 05:44:40
=== Authentication ===
Signature: 86KLCI1JXRML7GCETA3ROYFOCGO4QX8W
Passed!
------------------------------
------------------------------
2016-01-05 05:44:51
=== Authentication attempt ===
Signature: 86KLCI1JXRML7GCETA3ROYFOCGO4QX8W
------------------------------
------------------------------
2016-01-05 05:44:51
=== Authentication === 
Signature: 86KLCI1JXRML7GCETA3ROYFOCGO4QX8W
Passed!
------------------------------
------------------------------
2016-01-05 05:44:51
=== Authentication ===
Signature: 86KLCI1JXRML7GCETA3ROYFOCGO4QX8W
Passed!
------------------------------
------------------------------
2016-01-05 05:45:07
=== Authentication attempt ===
Signature: 86KLCI1JXRML7GCETA3ROYFOCGO4QX8W
------------------------------
------------------------------
2016-01-05 05:45:07
=== Authentication === 
Signature: 86KLCI1JXRML7GCETA3ROYFOCGO4QX8W
Passed!
------------------------------
------------------------------
2016-01-05 05:45:07
=== Authentication ===
Signature: 86KLCI1JXRML7GCETA3ROYFOCGO4QX8W
Passed!
------------------------------
------------------------------
2016-01-05 05:45:24
=== Authentication attempt ===
Signature: 86KLCI1JXRML7GCETA3ROYFOCGO4QX8W
------------------------------
------------------------------
2016-01-05 05:45:24
=== Authentication === 
Signature: 86KLCI1JXRML7GCETA3ROYFOCGO4QX8W
Passed!
------------------------------
------------------------------
2016-01-05 05:45:24
=== Authentication ===
Signature: 86KLCI1JXRML7GCETA3ROYFOCGO4QX8W
Passed!
------------------------------
------------------------------
2016-01-05 05:45:36
=== Authentication attempt ===
Signature: 86KLCI1JXRML7GCETA3ROYFOCGO4QX8W
------------------------------
------------------------------
2016-01-05 05:45:36
=== Authentication === 
Signature: 86KLCI1JXRML7GCETA3ROYFOCGO4QX8W
Passed!
------------------------------
------------------------------
2016-01-05 05:45:36
=== Authentication ===
Signature: 86KLCI1JXRML7GCETA3ROYFOCGO4QX8W
Passed!
------------------------------
------------------------------
2016-01-05 05:45:50
=== Authentication attempt ===
Signature: 86KLCI1JXRML7GCETA3ROYFOCGO4QX8W
------------------------------
------------------------------
2016-01-05 05:45:50
=== Authentication === 
Signature: 86KLCI1JXRML7GCETA3ROYFOCGO4QX8W
Passed!
------------------------------
------------------------------
2016-01-05 05:45:50
=== Authentication ===
Signature: 86KLCI1JXRML7GCETA3ROYFOCGO4QX8W
Passed!
------------------------------
------------------------------
2016-01-05 05:45:54
=== Authentication attempt ===
Signature: 86KLCI1JXRML7GCETA3ROYFOCGO4QX8W
------------------------------
------------------------------
2016-01-05 05:45:54
=== Authentication === 
Signature: 86KLCI1JXRML7GCETA3ROYFOCGO4QX8W
Passed!
------------------------------
------------------------------
2016-01-05 05:45:54
=== Authentication ===
Signature: 86KLCI1JXRML7GCETA3ROYFOCGO4QX8W
Passed!
------------------------------
------------------------------
2016-01-05 05:45:57
=== Authentication attempt ===
Signature: 86KLCI1JXRML7GCETA3ROYFOCGO4QX8W
------------------------------
------------------------------
2016-01-05 05:45:57
=== Authentication === 
Signature: 86KLCI1JXRML7GCETA3ROYFOCGO4QX8W
Passed!
------------------------------
------------------------------
2016-01-05 05:45:57
=== Authentication ===
Signature: 86KLCI1JXRML7GCETA3ROYFOCGO4QX8W
Passed!
------------------------------
------------------------------
2016-01-05 05:45:58
=== Authentication attempt ===
Signature: 86KLCI1JXRML7GCETA3ROYFOCGO4QX8W
------------------------------
------------------------------
2016-01-05 05:45:58
=== Authentication === 
Signature: 86KLCI1JXRML7GCETA3ROYFOCGO4QX8W
Passed!
------------------------------
------------------------------
2016-01-05 05:45:58
=== Authentication ===
Signature: 86KLCI1JXRML7GCETA3ROYFOCGO4QX8W
Passed!
------------------------------
------------------------------
2016-01-05 05:45:58
=== Authentication attempt ===
Signature: 86KLCI1JXRML7GCETA3ROYFOCGO4QX8W
------------------------------
------------------------------
2016-01-05 05:45:58
=== Authentication === 
Signature: 86KLCI1JXRML7GCETA3ROYFOCGO4QX8W
Passed!
------------------------------
------------------------------
2016-01-05 05:45:58
=== Authentication ===
Signature: 86KLCI1JXRML7GCETA3ROYFOCGO4QX8W
Passed!
------------------------------
------------------------------
2016-01-05 05:45:59
=== Authentication attempt ===
Signature: 86KLCI1JXRML7GCETA3ROYFOCGO4QX8W
------------------------------
------------------------------
2016-01-05 05:45:59
=== Authentication === 
Signature: 86KLCI1JXRML7GCETA3ROYFOCGO4QX8W
Passed!
------------------------------
------------------------------
2016-01-05 05:45:59
=== Authentication ===
Signature: 86KLCI1JXRML7GCETA3ROYFOCGO4QX8W
Passed!
------------------------------
------------------------------
2016-01-05 05:45:59
=== Authentication attempt ===
Signature: 86KLCI1JXRML7GCETA3ROYFOCGO4QX8W
------------------------------
------------------------------
2016-01-05 05:45:59
=== Authentication === 
Signature: 86KLCI1JXRML7GCETA3ROYFOCGO4QX8W
Passed!
------------------------------
------------------------------
2016-01-05 05:45:59
=== Authentication ===
Signature: 86KLCI1JXRML7GCETA3ROYFOCGO4QX8W
Passed!
------------------------------
------------------------------
2016-01-05 05:46:00
=== Authentication attempt ===
Signature: 86KLCI1JXRML7GCETA3ROYFOCGO4QX8W
------------------------------
------------------------------
2016-01-05 05:46:00
=== Authentication === 
Signature: 86KLCI1JXRML7GCETA3ROYFOCGO4QX8W
Passed!
------------------------------
------------------------------
2016-01-05 05:46:00
=== Authentication ===
Signature: 86KLCI1JXRML7GCETA3ROYFOCGO4QX8W
Passed!
------------------------------
------------------------------
2016-01-05 05:46:01
=== Authentication attempt ===
Signature: 86KLCI1JXRML7GCETA3ROYFOCGO4QX8W
------------------------------
------------------------------
2016-01-05 05:46:01
=== Authentication === 
Signature: 86KLCI1JXRML7GCETA3ROYFOCGO4QX8W
Passed!
------------------------------
------------------------------
2016-01-05 05:46:01
=== Authentication ===
Signature: 86KLCI1JXRML7GCETA3ROYFOCGO4QX8W
Passed!
------------------------------
------------------------------
2016-01-05 05:46:01
=== Authentication attempt ===
Signature: 86KLCI1JXRML7GCETA3ROYFOCGO4QX8W
------------------------------
------------------------------
2016-01-05 05:46:01
=== Authentication === 
Signature: 86KLCI1JXRML7GCETA3ROYFOCGO4QX8W
Passed!
------------------------------
------------------------------
2016-01-05 05:46:01
=== Authentication ===
Signature: 86KLCI1JXRML7GCETA3ROYFOCGO4QX8W
Passed!
------------------------------
------------------------------
2016-01-05 05:46:02
=== Authentication attempt ===
Signature: 86KLCI1JXRML7GCETA3ROYFOCGO4QX8W
------------------------------
------------------------------
2016-01-05 05:46:02
=== Authentication === 
Signature: 86KLCI1JXRML7GCETA3ROYFOCGO4QX8W
Passed!
------------------------------
------------------------------
2016-01-05 05:46:02
=== Authentication ===
Signature: 86KLCI1JXRML7GCETA3ROYFOCGO4QX8W
Passed!
------------------------------
------------------------------
2016-01-05 05:46:02
=== Authentication attempt ===
Signature: 86KLCI1JXRML7GCETA3ROYFOCGO4QX8W
------------------------------
------------------------------
2016-01-05 05:46:02
=== Authentication === 
Signature: 86KLCI1JXRML7GCETA3ROYFOCGO4QX8W
Passed!
------------------------------
------------------------------
2016-01-05 05:46:02
=== Authentication ===
Signature: 86KLCI1JXRML7GCETA3ROYFOCGO4QX8W
Passed!
------------------------------
------------------------------
2016-01-05 05:46:02
=== Authentication attempt ===
Signature: 86KLCI1JXRML7GCETA3ROYFOCGO4QX8W
------------------------------
------------------------------
2016-01-05 05:46:02
=== Authentication === 
Signature: 86KLCI1JXRML7GCETA3ROYFOCGO4QX8W
Passed!
------------------------------
------------------------------
2016-01-05 05:46:02
=== Authentication ===
Signature: 86KLCI1JXRML7GCETA3ROYFOCGO4QX8W
Passed!
------------------------------
------------------------------
2016-01-05 05:46:03
=== Authentication attempt ===
Signature: 86KLCI1JXRML7GCETA3ROYFOCGO4QX8W
------------------------------
------------------------------
2016-01-05 05:46:03
=== Authentication === 
Signature: 86KLCI1JXRML7GCETA3ROYFOCGO4QX8W
Passed!
------------------------------
------------------------------
2016-01-05 05:46:03
=== Authentication ===
Signature: 86KLCI1JXRML7GCETA3ROYFOCGO4QX8W
Passed!
------------------------------
------------------------------
2016-01-05 05:46:03
=== Authentication attempt ===
Signature: 86KLCI1JXRML7GCETA3ROYFOCGO4QX8W
------------------------------
------------------------------
2016-01-05 05:46:03
=== Authentication === 
Signature: 86KLCI1JXRML7GCETA3ROYFOCGO4QX8W
Passed!
------------------------------
------------------------------
2016-01-05 05:46:03
=== Authentication ===
Signature: 86KLCI1JXRML7GCETA3ROYFOCGO4QX8W
Passed!
------------------------------
------------------------------
2016-01-05 05:46:03
=== Authentication attempt ===
Signature: 86KLCI1JXRML7GCETA3ROYFOCGO4QX8W
------------------------------
------------------------------
2016-01-05 05:46:03
=== Authentication === 
Signature: 86KLCI1JXRML7GCETA3ROYFOCGO4QX8W
Passed!
------------------------------
------------------------------
2016-01-05 05:46:03
=== Authentication ===
Signature: 86KLCI1JXRML7GCETA3ROYFOCGO4QX8W
Passed!
------------------------------
------------------------------
2016-01-05 05:46:04
=== Authentication attempt ===
Signature: 86KLCI1JXRML7GCETA3ROYFOCGO4QX8W
------------------------------
------------------------------
2016-01-05 05:46:04
=== Authentication === 
Signature: 86KLCI1JXRML7GCETA3ROYFOCGO4QX8W
Passed!
------------------------------
------------------------------
2016-01-05 05:46:04
=== Authentication ===
Signature: 86KLCI1JXRML7GCETA3ROYFOCGO4QX8W
Passed!
------------------------------
------------------------------
2016-01-05 05:46:04
=== Authentication attempt ===
Signature: 86KLCI1JXRML7GCETA3ROYFOCGO4QX8W
------------------------------
------------------------------
2016-01-05 05:46:04
=== Authentication === 
Signature: 86KLCI1JXRML7GCETA3ROYFOCGO4QX8W
Passed!
------------------------------
------------------------------
2016-01-05 05:46:04
=== Authentication ===
Signature: 86KLCI1JXRML7GCETA3ROYFOCGO4QX8W
Passed!
------------------------------
------------------------------
2016-01-05 05:46:04
=== Authentication attempt ===
Signature: 86KLCI1JXRML7GCETA3ROYFOCGO4QX8W
------------------------------
------------------------------
2016-01-05 05:46:04
=== Authentication === 
Signature: 86KLCI1JXRML7GCETA3ROYFOCGO4QX8W
Passed!
------------------------------
------------------------------
2016-01-05 05:46:04
=== Authentication ===
Signature: 86KLCI1JXRML7GCETA3ROYFOCGO4QX8W
Passed!
------------------------------
------------------------------
2016-01-05 05:46:05
=== Authentication attempt ===
Signature: 86KLCI1JXRML7GCETA3ROYFOCGO4QX8W
------------------------------
------------------------------
2016-01-05 05:46:05
=== Authentication === 
Signature: 86KLCI1JXRML7GCETA3ROYFOCGO4QX8W
Passed!
------------------------------
------------------------------
2016-01-05 05:46:05
=== Authentication ===
Signature: 86KLCI1JXRML7GCETA3ROYFOCGO4QX8W
Passed!
------------------------------
------------------------------
2016-01-05 05:46:05
=== Authentication attempt ===
Signature: 86KLCI1JXRML7GCETA3ROYFOCGO4QX8W
------------------------------
------------------------------
2016-01-05 05:46:05
=== Authentication === 
Signature: 86KLCI1JXRML7GCETA3ROYFOCGO4QX8W
Passed!
------------------------------
------------------------------
2016-01-05 05:46:05
=== Authentication ===
Signature: 86KLCI1JXRML7GCETA3ROYFOCGO4QX8W
Passed!
------------------------------
------------------------------
2016-01-05 05:46:06
=== Authentication attempt ===
Signature: 86KLCI1JXRML7GCETA3ROYFOCGO4QX8W
------------------------------
------------------------------
2016-01-05 05:46:06
=== Authentication === 
Signature: 86KLCI1JXRML7GCETA3ROYFOCGO4QX8W
Passed!
------------------------------
------------------------------
2016-01-05 05:46:06
=== Authentication ===
Signature: 86KLCI1JXRML7GCETA3ROYFOCGO4QX8W
Passed!
------------------------------
------------------------------
2016-01-05 05:46:06
=== Authentication attempt ===
Signature: 86KLCI1JXRML7GCETA3ROYFOCGO4QX8W
------------------------------
------------------------------
2016-01-05 05:46:06
=== Authentication === 
Signature: 86KLCI1JXRML7GCETA3ROYFOCGO4QX8W
Passed!
------------------------------
------------------------------
2016-01-05 05:46:06
=== Authentication ===
Signature: 86KLCI1JXRML7GCETA3ROYFOCGO4QX8W
Passed!
------------------------------
------------------------------
2016-01-05 05:46:07
=== Authentication attempt ===
Signature: 86KLCI1JXRML7GCETA3ROYFOCGO4QX8W
------------------------------
------------------------------
2016-01-05 05:46:07
=== Authentication === 
Signature: 86KLCI1JXRML7GCETA3ROYFOCGO4QX8W
Passed!
------------------------------
------------------------------
2016-01-05 05:46:07
=== Authentication ===
Signature: 86KLCI1JXRML7GCETA3ROYFOCGO4QX8W
Passed!
------------------------------
------------------------------
2016-01-05 05:46:07
=== Authentication attempt ===
Signature: 86KLCI1JXRML7GCETA3ROYFOCGO4QX8W
------------------------------
------------------------------
2016-01-05 05:46:07
=== Authentication === 
Signature: 86KLCI1JXRML7GCETA3ROYFOCGO4QX8W
Passed!
------------------------------
------------------------------
2016-01-05 05:46:07
=== Authentication ===
Signature: 86KLCI1JXRML7GCETA3ROYFOCGO4QX8W
Passed!
------------------------------
------------------------------
2016-01-05 05:46:07
=== Authentication attempt ===
Signature: 86KLCI1JXRML7GCETA3ROYFOCGO4QX8W
------------------------------
------------------------------
2016-01-05 05:46:07
=== Authentication === 
Signature: 86KLCI1JXRML7GCETA3ROYFOCGO4QX8W
Passed!
------------------------------
------------------------------
2016-01-05 05:46:07
=== Authentication ===
Signature: 86KLCI1JXRML7GCETA3ROYFOCGO4QX8W
Passed!
------------------------------
------------------------------
2016-01-05 05:46:08
=== Authentication attempt ===
Signature: 86KLCI1JXRML7GCETA3ROYFOCGO4QX8W
------------------------------
------------------------------
2016-01-05 05:46:08
=== Authentication === 
Signature: 86KLCI1JXRML7GCETA3ROYFOCGO4QX8W
Passed!
------------------------------
------------------------------
2016-01-05 05:46:08
=== Authentication ===
Signature: 86KLCI1JXRML7GCETA3ROYFOCGO4QX8W
Passed!
------------------------------
------------------------------
2016-01-05 07:54:08
New token generation request!
Username: egorikem
------------------------------
------------------------------
2016-01-05 07:56:35
New token generation request!
Username: egorikem
------------------------------
------------------------------
2016-01-05 08:11:44
New token generation request!
Username: egorikem
------------------------------
------------------------------
2016-01-05 08:12:26
New token generation request!
Username: egorikem
------------------------------
------------------------------
2016-01-05 08:12:55
New token generation request!
Username: egorikem
------------------------------
------------------------------
2016-01-05 08:15:28
New token generation request!
Username: egorikem
------------------------------
------------------------------
2016-01-05 08:15:40
New token generation request!
Username: egorikem
------------------------------
------------------------------
2016-01-05 08:16:41
New token generation request!
Username: egorikem
------------------------------
------------------------------
2016-01-05 08:21:23
New token generation request!
Username: egorikem
------------------------------
------------------------------
2016-01-05 08:21:48
New token generation request!
Username: egorikem
------------------------------
------------------------------
2016-01-05 08:21:52
New token generation request!
Username: egorikem
------------------------------
------------------------------
2016-01-05 08:22:05
New token generation request!
Username: egorikem
------------------------------
------------------------------
2016-01-05 08:22:18
New token generation request!
Username: egorikem
------------------------------
------------------------------
2016-01-05 08:22:37
New token generation request!
Username: egorikem
------------------------------
------------------------------
2016-01-05 08:23:01
New token generation request!
Username: egorikem
------------------------------
------------------------------
2016-01-05 08:24:19
New token generation request!
Username: egorikem
------------------------------
------------------------------
2016-01-05 08:28:57
New token generation request!
Username: egorikem
------------------------------
------------------------------
2016-01-05 08:52:03
New token generation request!
Username: egorikem
------------------------------
------------------------------
2016-01-08 23:40:50
New token generation request!
Username: egorikem
------------------------------
